Diversified Telecommunication Services,H04L|H04N|G06F|H04B|H04M|H04W|G02B|H01L|G06Q|H04Q|G10L,0.2177|0.1302|0.1269|0.1119|0.1093|0.0991|0.0793|0.0667|0.0385|0.0385
Containers and Packaging,B65D|B29C|B32B|B65B|C03B|C08L|B31B|B21D|D21H|B05B|B65G|C03C|C09J|C08J|B65H|G01N|C09D|A23L|C04B|C08K|B31D,0.4463|0.1562|0.0962|0.0772|0.0362|0.0299|0.0237|0.0169|0.0142|0.0136|0.013|0.0116|0.0108|0.0104|0.0091|0.0085|0.0084|0.0081|0.0081|0.0079
"Oil, Gas and Consumable Fuels",B01J|C07C|C10G|C10M|C08F|E21B|C10N|C08L|C01B|C10L|C08G|H01L|B01D|C09K|C07D|C12N|H01M|G01V|Y02E|G01N|F16L|C08J|C12P|Y02P,0.1506|0.1492|0.0992|0.0815|0.0761|0.0687|0.0585|0.0538|0.0362|0.0357|0.0309|0.0285|0.0275|0.0238|0.0233|0.0216|0.0185|0.017
Electrical Equipment,H01L|H01M|H01H|H01R|H04N|H02K|G06F|G02B|H01J|F21V|H01B|H05B|H05K|H02M|G11B|H04B|H04L|B23K|H01F|G01R|H02J|H02P|H02G|H01S|C23C|G11C|C22C|G05B|G01N|F16H|B66B|H03K|B29C|F01D|H02H|B01D|F02D|F21S|H04W|G01S|H01Q|H02B|F24F|F03D|F02C|B32B|C04B|B22D|B21B|G02F|H04M|F25B|C21D|F16L|F02M|H03F|C08K|F16D|C03B|B23H|G06K|F04D|Y02E|C25D|Y02B|H04Q|Y02P,0.1129|0.0801|0.0471|0.0423|0.0373|0.0346|0.029|0.0276|0.0246|0.0235|0.023|0.0219|0.0207|0.0203|0.0189|0.0171|0.0165|0.0161|0.0158|0.0157|0.0156|0.0141|0.0139|0.0135|0.0129|0.0125|0.0124|0.0122|0.0122|0.0109|0.0109|0.0108|0.0101|0.01|0.0097|0.0096|0.0087|0.008|0.0076|0.0075|0.0074|0.0072|0.0071|0.007|0.0069|0.0069|0.0068|0.0063|0.006|0.006|0.0059|0.0058|0.0056|0.0054|0.0052|0.005|0.0047|0.0046|0.0046|0.0045|0.0043|0.0042|0.0042|0.004
Media,H04N|H04L|G06F|G11B|H04H|G06Q|H04B|G10L|H01Q,0.5876|0.1061|0.1034|0.0806|0.0397|0.0333|0.0307|0.0271
Airlines,B60N|B64D|G06Q|A47C|G06F|B60L|H04H|B64F|B61B|B64C|G01M|A47B|B60M|G01N|G07C|H02K|F02C|H04N|G07B|G09B|G05D|G08G,0.2585|0.2306|0.1211|0.1097|0.0504|0.0386|0.0241|0.0224|0.0197|0.0155|0.0145|0.0145|0.0138|0.0128|0.0122|0.0118|0.0109|0.0101|0.0096
Thrifts and Mortgage Finance,G06Q|G06F,0.9538|0.2002
Pharmaceuticals,A61K|C07D|A61P|C07K|C07C,0.4092|0.3287|0.2731
Road and Rail,G06Q|B61L|E01B|B61D|B61F|B60L|B65D|E01D|E02D|B61K|B60M|G01B|E21D|G06F|H02K|B61C|B60T|C04B|G01N|B60P|G01M|G06K|F02D|G01S|G01R|B62D|H04L|E04B|E04G|B61B|H04W|B65G|G07B|G21F|H04B|B66B|B60N|B61G|E01F|B60D|E01H|H02G|E05B|G09F|B23P,0.1011|0.1002|0.0809|0.0757|0.0472|0.0445|0.0387|0.026|0.0251|0.0236|0.0233|0.0229|0.0203|0.0192|0.0189|0.0184|0.0177|0.0164|0.0161|0.0156|0.014|0.0136|0.0132|0.0127|0.0125|0.0122|0.0118|0.0116|0.0115|0.0115|0.0114|0.0114|0.0109|0.0109|0.0108|0.0103|0.0102|0.0102|0.0099|0.0084|0.0083|0.0082|0.0079
Multi-Utilities,H02J|F16L|G01R|E21B|H01M|B60L|H02H|F23D|G06Q|C10L|H04L|H01R|C02F|B29C|G01N|B01D|G05D|F25J|F17C|G05F|G06F|G05B|H02G|F03D|F17D|F16K|G07F|F24D|G01M|E02D|G01F|H01H|G08C|F24F|C10K,0.1399|0.1051|0.0581|0.0571|0.0518|0.0505|0.0329|0.0316|0.03|0.0288|0.0283|0.0244|0.0219|0.0189|0.018|0.0177|0.0175|0.0173|0.0171|0.0168|0.0166|0.0161|0.0157|0.0154|0.0154|0.0145|0.0143|0.0138|0.0138|0.0129|0.0122|0.0108|0.0106|0.0099|0.0092|0.0092|0.0085
Building Products,C03C|B29C|E05B|E06B|B32B|A44B|C03B|E04B|F24F|C07C|C08L|C04B|F16L|C08F|F25B|E05F|C09D|B24D|E04F|E05D|D04H|E03D|F16K|H01L|E03C|F16B|G02B|C08G|B01D|E04D|A47K|H01M|B01J|C08K|E05C|C09K|C08J|F04C|B65D|C23C|G02F|B25C|B24B|B05B|E04C|B28B|G01N|H01G|B23B|A47B|H02K|B25D|B25B,0.0526|0.0468|0.0461|0.0452|0.0445|0.0379|0.0354|0.0327|0.0304|0.0288|0.0268|0.0251|0.0247|0.0241|0.0229|0.0226|0.0225|0.0207|0.0205|0.0196|0.0194|0.0176|0.0173|0.0171|0.017|0.0169|0.0157|0.0151|0.0144|0.0141|0.014|0.0137|0.0137|0.0132|0.0123|0.0123|0.0117|0.0106|0.0104|0.0088|0.0077|0.0074|0.007|0.0068|0.0068|0.0066|0.0064|0.006|0.006|0.0058|0.0058|0.0058|0.0054|0.0054
Industrial Conglomerates,H01L|H04N|G06F|G11B|G11C|H01J|A61B|H04L|G01N|G03G|H01M|C09J|G02B|G21C|C08G|H04B|H05K|C07C|G06Q|G06K|A61K|C08L|B32B|G01R|H03K|B29C|G02F|C08F|G03F|H01F|G06T|B65H|G09G|H02K|B01D|H04W|G05B|H04M|H02M|B41J|C07D|G01S|H02P|H02J|G03C|F01D|C09D|C09K|H05B|B23K|H04Q|Y02E|B61L|H01R|H02G|H03M|H02H|H01H|H02B|H01B,0.1812|0.0904|0.075|0.0586|0.0321|0.0246|0.0226|0.0221|0.0211|0.0209|0.0197|0.0186|0.0183|0.0165|0.016|0.0144|0.0142|0.0142|0.0141|0.0141|0.014|0.0136|0.0132|0.0128|0.0125|0.0123|0.0122|0.0118|0.0117|0.0113|0.0112|0.0112|0.0109|0.0108|0.0106|0.0104|0.0101|0.0099|0.0097|0.0093|0.0089|0.0086|0.0086|0.0081|0.0078|0.0075|0.0075|0.0074
Energy Equipment and Services,E21B|G01V|C09K|C07C|F16L|B01J|B01D|C04B|B63B|C08F,0.6145|0.0996|0.0843|0.052|0.0461|0.0275|0.026|0.0222|0.0199|0.0181
Food Products,A23L|C12N|A61K|A01N|C07D|A23G|A61P|A01H|C07C|A23C|C12P|A23K|B65D|A21D|A23F|C07K|A23J,0.1791|0.1286|0.1236|0.1164|0.084|0.0815|0.0557|0.0496|0.0468|0.0382|0.0335|0.0298|0.0295|0.0261
Gas Utilities,F16L|H01M|G01F|B01J|G01N|B29C|F23D|B01D|F24H|F25B|C07C|C01B|F23N|G06Q|F17C|F16K|F24D|F24F|F24C|F02D|C02F|G01M|G01V|F23C|G08B|H02J|F17D|E21B|G06F|C10L|F02B|F23L|C10G|F02M|H01L|C08L|Y02E|Y02A|Y02B|Y02T|Y02P,0.1176|0.0806|0.0628|0.0612|0.0554|0.0495|0.0438|0.039|0.0383|0.0342|0.034|0.0325|0.0279|0.0254|0.0231|0.0228|0.0228|0.0186|0.018|0.0165|0.0143|0.0143|0.014|0.013|0.0124|0.0122|0.0111|0.0106|0.0104|0.0102|0.0101|0.0101|0.0095|0.0083|0.0078|0.0077
"Hotels, Restaurants and Leisure",A63F|G07F|G06F,0.6572|0.3017|0.0987
Household Products,C11D|A61K|A61F|A61Q|B65D|D06M|A61P|A61L|B32B|A46B,0.3273|0.3|0.1874|0.0792|0.0463|0.0304|0.0277|0.0262
Capital Markets,A61K|C12N|C07K|G06Q|G01N|H04L|G06F|H04W|H04B|H04M|A24D,0.1924|0.1761|0.1429|0.0863|0.0807|0.0807|0.069|0.0686|0.044|0.0266|0.023|0.0186
Healthcare Equipment and Supplies,A61B|A61M|G01N|A61F|A61K|A61L|A61N|G02B|C07D|H04N|A61P|C12N|C12Q|A61C|G02C|C07K|G03B|C07C|A61G|H04R,0.3149|0.1168|0.1035|0.1027|0.0758|0.0521|0.0382|0.0369|0.0241|0.0232|0.0201|0.0183|0.0175|0.0148|0.0131|0.013|0.0119|0.0115
Automobiles,F02D|F16H|H01M|B60W|B60K|B62D|B60R|F02B|F01N|F02M|B60T|B60L|B60G|F16D|F01L|F02F|B60N|B60J|H01L|F16F|B01J|B29C|B01D|H02K|B23K|Y02E|B62K|B60H|B62J|B60Q|Y02T,0.1206|0.0967|0.082|0.0807|0.075|0.0727|0.0719|0.0556|0.0499|0.0477|0.0338|0.0271|0.0231|0.0207|0.0202|0.017|0.0168|0.0167|0.0135|0.0134|0.0133|0.0133|0.0127|0.0127
Internet and Direct Marketing Retail,G06F|G06Q|H04N|H04L,0.3991|0.3758|0.1507|0.0949
Auto Components,B60C|B60R|F16H|H01L|F02M|F16D|H01R|B60T|B29C|F02D|C08L|H01M|H02K|B60K|B60N|C08K|B62D|F16F|B60W|G02B|H01B|B29D|B60J|H05K|F04B|B60H|F16C|G01N|F01N|E05B|F02B|H02G|B60Q|F16K|G06F|B60G|B01D|G08G|F21V|H01H|C08F|G01C|F01L|B32B|G01S|F28F|F04C|F25B|H04B|C22C|F16J|B60S|F02P|H01F|H01T|G01D|G01R|Y02E|Y02T|H02P|F21S|F16L,0.0697|0.0685|0.0456|0.0451|0.0436|0.0369|0.0355|0.0345|0.0341|0.0337|0.0285|0.0253|0.0234|0.0227|0.0225|0.0209|0.02|0.02|0.0195|0.0173|0.0158|0.0151|0.0139|0.0133|0.0125|0.0121|0.012|0.0112|0.011|0.0106|0.0098|0.0096|0.0092|0.0091|0.0089|0.0088|0.0085|0.0085|0.0084|0.0082|0.0081|0.0081|0.008|0.0078|0.0076|0.0075|0.0073|0.0072|0.0069|0.0067|0.0066|0.0065|0.0064|0.006|0.0058|0.0058|0.0057
Beverages,A23L|C12N|A61K|B65D|B67D|A61P|C12P|C07K|G01N|C12C|C07D|G07F|C12R|C12G|C07C|A47J|B65B|A23F|C12Q|C07H,0.1647|0.1408|0.1304|0.1002|0.097|0.0876|0.0439|0.0427|0.0391|0.0375|0.0341|0.0289|0.0242|0.0227|0.0225
Personal Products,A61K|C11D|A61Q|A23L|C07C|A61P|D06M|A61F|B65D,0.4777|0.1756|0.1674|0.0452|0.0402|0.0308|0.0293|0.0253|0.0239
Air Freight and Logistics,G06Q|B65G|G06F|G06K|B07C|H04L|B65D|G07B|H04M|G07C|G08G|G01S|G02B,0.289|0.1518|0.1248|0.1227|0.0873|0.0554|0.0408|0.0389|0.0222|0.0217|0.0215|0.0214|0.0183
"Technology Hardware, Storage and Peripherals",H04N|G06F|G03G|B41J|H01L|G11B|H04L|H04W|G02B|G03B|B65H|H04B|G02F|G06T|G11C,0.1711|0.1457|0.1358|0.1067|0.1056|0.0725|0.047|0.038|0.036|0.0345|0.0314|0.0269|0.0265|0.0242
Chemicals,C07C|C08L|C08F|C08G|C07D|C08K|B01J|A01N|C09D|A61K|B32B|H01L|B29C|C08J|C09J|H01M|B01D|D06M|G03F|C12N|C09K|C07F|C09B|G02B|C04B|C10M|C11D|C01B|D01F|B65D|G01N|C12P|Y02P,0.1103|0.1095|0.0892|0.0732|0.0668|0.0549|0.0474|0.0455|0.0455|0.0429|0.0347|0.0316|0.0272|0.0267|0.023|0.0227|0.0196|0.0182|0.0177|0.0176|0.0165|0.0124|0.0119|0.0112|0.011|0.0109|0.0108
Equity Real Estate Investment Trusts (REITs),G06F,1.057
Food and Staples Retailing,A61K|C07C|C07D|G06Q|A61P|A23L|A01N|G06F|A47J|B65G|G06K,0.3071|0.2567|0.214|0.0768|0.0606|0.0382|0.0277|0.026
Diversified Financial Services,F02D|B60R|B60W|H04N|G06F|F02M|A61K|H04L|F01N|B62D|F02B|H04M|H01M|B60K|H01R|B60T|F16H|H04W|B60N|G10L|G01N|G06Q|F01L|F16D|A61B|B60L|B60Q|C07C|H01L|B60G|B60H|C07D|H05K|G06K|G06T|G11B|H04S|G01S|H04B|B60J,0.0767|0.0645|0.0589|0.0556|0.0461|0.0453|0.0419|0.0404|0.0362|0.0345|0.0279|0.026|0.0247|0.0241|0.0235|0.0228|0.0217|0.021|0.0208|0.0188|0.0156|0.0152|0.0147|0.0131|0.0129|0.0125|0.0118|0.0114|0.0106|0.0106|0.0099|0.0097|0.0093|0.0087|0.0086|0.0086|0.0083|0.0082|0.0079|0.0077|0.0076|0.0075|0.0074|0.0071|0.0067|0.0066|0.0066|0.0064
Water Utilities,C02F|B01D|F16L|B01J|B29C|G01N|G01F|B01F|B03C|E03F|F16K|E02B|E03B,0.5045|0.277|0.0552|0.0425|0.0401|0.0317|0.0195|0.0195|0.019
Trading Companies and Distributors,E21B|H01L|G02B|G01S|H01J|H01S|H04N|A63F|G06F|H01Q|H05K|B29C|G01N|H01M|B23K|G02F|C08L|F16L|B01D|A61K|H01P|C23C|B65H|C07C|B65D|H04B|F41G|C08K|C08G|G06Q|H04L|B01J|G01R|B64G|C02F|G06T|H03K|G01J|E02F|C11D|B21D|H01R|B65B|B32B|C09D|F42B|C12N|C01B|G07F|G03H|B65G|G11C|A23L|C30B|G01B|A01N|F16B|C08J|F16J|H02M|E04G|C08F|C04B|B66F|B62D|H02G|D06M|H03F|C03B|C22B|H01G|H03M|E03D|G01C,0.2252|0.0656|0.0473|0.0372|0.0285|0.0251|0.0236|0.0216|0.021|0.021|0.0178|0.016|0.0158|0.0153|0.0152|0.015|0.0146|0.0142|0.0132|0.0132|0.0127|0.0124|0.012|0.0119|0.0119|0.0101|0.009|0.0084|0.0083|0.0082|0.008|0.0079|0.0079|0.0077|0.0075|0.0072|0.0071|0.0071|0.007|0.0068|0.0068|0.0064|0.0062|0.0062|0.006|0.0058|0.0054|0.0052|0.0051|0.005|0.005|0.005|0.005|0.0048|0.0047|0.0045|0.0045|0.0043|0.0043|0.0043|0.0042|0.0042|0.0042|0.0039|0.0038|0.0038|0.0038|0.0038|0.0037|0.0037|0.0036|0.0035|0.0035|0.0035
Marine,B63B|B65D|F25D|B63H|B65G|G06Q|C01G|F01M|B01D|C10L|B60P|F02D|F17C|B66C|B63J,0.2957|0.2917|0.0785|0.0772|0.0742|0.0326|0.028|0.0249|0.0218|0.0212|0.0209|0.0209|0.0172
"Textiles, Apparel and Luxury Goods",A43B|D04H|B32B|G04B|D06M|A41D|B29C|D01F|D03D|A63B|A45C|D21F|D04B|A61F|D02G|C08L|G04C|G04G|A43C|B01D|A61B|C08G|G06F|A61L|A41C|A44C|D01D|B29D|B65D|A41B|D06P|A44B|C08J|D06N|D21H|B65H|H01M|C08K|G02C|A43D|B60R|B01J|C23C|D05B|H03H|G01N|G02B|H01L|G02F|B41J|B24B,0.1301|0.0777|0.0712|0.0677|0.0664|0.0492|0.0375|0.033|0.0313|0.0297|0.0293|0.0292|0.0247|0.0233|0.018|0.0162|0.0161|0.0159|0.015|0.0143|0.0142|0.0132|0.0128|0.0125|0.0121|0.0116|0.0109|0.0108|0.0108|0.0101|0.01|0.0098|0.0094|0.0084|0.008|0.0078|0.0071|0.0064|0.006|0.0059|0.0056|0.0054
Aerospace and Defense,B64C|G01S|F01D|B64D|H01L|B29C|F02C|G06F|H01Q|G02B|H04L|F02K|H04B|H04N|G01N|B32B|G01C|F42B|C23C|H01S|B23K|H05K|G05D|B64G|F41A|F04D|H04W|H01M|F23R|F16B|F16D|B60T|F41G|H01R|G06K|H01J|H02K|F16H|G06T|G02F|C04B|G01R|F16C|B60R|H01P|F16F|G01B|B64F|G01P|B01D|G08G|B23P|F16L|C22C|G01J|G11B|G05B|B62D|C06B|H03K|H03F|C08G|F41H|B22F,0.0685|0.0619|0.056|0.0551|0.0411|0.038|0.0374|0.0362|0.035|0.0315|0.0274|0.0251|0.0236|0.0232|0.0212|0.0198|0.0176|0.0162|0.0147|0.0141|0.0137|0.0127|0.0124|0.0119|0.0115|0.0114|0.0111|0.011|0.0098|0.0093|0.0091|0.009|0.0088|0.0084|0.0084|0.0082|0.0081|0.0081|0.0079|0.0078|0.0076|0.0075|0.0074|0.007|0.0069|0.0068|0.0066|0.0064|0.0063|0.0062|0.0061|0.006|0.0059|0.0058|0.0056|0.0051|0.005|0.0048|0.0048|0.0048|0.0045|0.0045|0.0043|0.0042
Household Durables,H04N|G11B|H01L|G06F|H04L|H01M|H04W|H04B|G09G|G02F|G02B|G03B|H01J|D06F|G06T|F24F|A47L|G06Q|H05K|F25D|A47J|H04M|H05B|H04R|B41J|G06K,0.2661|0.1548|0.0973|0.0758|0.0415|0.0367|0.0351|0.0311|0.0306|0.0264|0.0259|0.0202|0.0193|0.0187|0.0162|0.0157|0.0154|0.0122|0.0118|0.0117|0.0115|0.0112|0.0112|0.0099
Construction and Engineering,G21C|E02D|E04B|B01D|H01H|E21D|E04G|B01J|C02F|G01N|E04H|C04B|F24F|H01L|C07C|B23K|F22B|G21F|E01D|H02K|F01D|E04C|F16L|B65G|C01B|E02B|C10G|B66B|F16F|E21B|H02H|E02F|G06Q|G06F|E01C|B29C|G01R|H01F|H01B|H01J|G21D|C08G|H02P|H01M|F02B|G01B|E04F|G02B|B63B|C10B|F04D|B65D|F28F|B66C|F02D|H05K|H02M|C08L|F01K|F02M|H01Q|H02G|H02J|E06B|F02C|C22C|C09K|B09B|F23C|A01G|H05B|G05B|B21B|G01S|B01F|H03K|C10J|H01R|F23G|B28B|B21C|C23C|E01B|F27D|B62D|C21C|Y02E|B22D|Y02A|G01C|F28D|G01M|B03C|Y02W|Y02P,0.0703|0.0556|0.053|0.0462|0.0352|0.0346|0.0299|0.0289|0.028|0.0255|0.023|0.0228|0.0207|0.0198|0.0181|0.0163|0.0147|0.0142|0.0137|0.0129|0.0125|0.0121|0.0118|0.0116|0.0115|0.0115|0.0109|0.0108|0.0107|0.0105|0.0101|0.0095|0.0093|0.0093|0.009|0.0083|0.0083|0.0081|0.008|0.0079|0.0077|0.0076|0.0075|0.0074|0.0071|0.0071|0.0071|0.0067|0.0067|0.0066|0.0062|0.006|0.006|0.0059|0.0058|0.0057|0.0055|0.0052|0.0051|0.0051|0.005|0.0049|0.0049|0.0049|0.0049|0.0049|0.0048|0.0047|0.0046|0.0045|0.0043|0.0043|0.0043|0.0042|0.0042|0.0041|0.0041|0.004|0.004|0.0039
Tobacco,A24D|A24B|C07D|A61K|A61P|B65D|A24F|C07C|A24C,0.2201|0.1776|0.133|0.1289|0.0828|0.081|0.0757|0.0635|0.0609
Communications Equipment,H04L|H04W|H04N|H04B|G06F|H01L|H04M|H01M|G02B|G11B|H01Q|H04Q|H04J,0.2335|0.2091|0.1122|0.0982|0.0862|0.06|0.0558|0.0401|0.0291|0.0237|0.0234|0.0218|0.0159
Wireless Telecommunication Services,H04W|H04L|H04B|H04N|G06F|H04M,0.4894|0.1912|0.1073|0.0962|0.088|0.0496
IT Services,G06F|H01L|H04L|H04N|G11B|G06Q|B41J|G11C|H04W|H04B,0.3712|0.1796|0.1173|0.0619|0.0604|0.0602|0.0392|0.0383|0.0366|0.0363
Machinery,B01D|B29C|B65G|F16C|F16H|B23K|B65H|B65B|F16K|B66B|E02F|C02F|B62D|H01L|F15B|B41F|G01N|B23Q|F04D|B01J|F04B|H02K|F16L|A01D|B65D|F16D|F25B|B05B|B60K|F02M|B21D|B66C|F01N|H01M|C23C|F04C|F02B|B22D|F02D|B23B|D21F|F16B|E21B|B24B|C04B|B63B|B21B|A01B|B66F|B41J|C22C|B01F|H05K|G06F|G03G|G05B|F24F|D04B|G05D|B60T|D05B|F01D|D01H|B02C|F28F|B60W|B25B|A01F|B30B|A01C|F25D|H04N|G01B|F16G|F16J|H01J|B32B|B25J|C07C|H02P|C21D|B26D|B25C|H05B|F16F|F02C|B23D|F23G|B31B|B05C|B60R|E21D|F27B|F22B|F27D|C08L|C01B|A61K|D03D|F26B|F23D|B60L|F28D|B63H|A47J|B04B|A63F|B08B|F23C|B29B|C22B|G01M|E01C|B22C|E01B|C08F|B61D|G07F|B67D|C10M|A47L|C03B|H01R|G02B|B25D|G06Q|B23H|A01K|A22C|E04G|Y02E|B23C|E04H|F01L|E02D|G07D|G01L|B60P|B25F|G01F|Y02T|Y02W|A01G|Y02P|A24C,0.0558|0.0389|0.0312|0.0297|0.025|0.0237|0.0226|0.0223|0.0195|0.0181|0.0178|0.0175|0.0164|0.0159|0.0152|0.0139|0.0137|0.0136|0.0134|0.0132|0.013|0.0126|0.0121|0.0121|0.0119|0.0114|0.0107|0.0103|0.01|0.0096|0.0094|0.0093|0.009|0.009|0.0089|0.0089|0.0088|0.0083|0.0082|0.0082|0.0082|0.0076|0.0074|0.0072|0.0072|0.0069|0.0069|0.0068|0.0064|0.0064|0.0062|0.006|0.006|0.0059|0.0059|0.0058|0.0057|0.0057|0.0056|0.0055|0.0053|0.0053|0.0052|0.0052|0.0051|0.0049|0.0048|0.0048|0.0048|0.0048|0.0045|0.0045|0.0045|0.0044|0.0043|0.0043|0.0042|0.0042|0.0042|0.0041|0.0041|0.0041|0.004|0.004|0.0039|0.0038|0.0038|0.0037|0.0036|0.0035|0.0035|0.0034|0.0034|0.0034|0.0034|0.0034|0.0033|0.0033|0.0033|0.0032|0.003|0.003|0.0029|0.0028|0.0028|0.0028|0.0027|0.0027|0.0027|0.0026|0.0026|0.0026|0.0026|0.0025|0.0025|0.0025|0.0025|0.0024|0.0024|0.0024|0.0024|0.0024|0.0023|0.0023|0.0023|0.0023
Transportation Infrastructure,E01F|B60R|B63B|F16F|G08G|E01B|B65G|G06Q|E01D|B64F|B66C|G01N|G01C|E04G|B63C|G11B|G06F|E01C|G01S|E02D|G09F|B61K|G06K|B61L|B60M|G07B,0.4179|0.0967|0.0842|0.0547|0.0366|0.0338|0.0292|0.0249|0.0235|0.0228|0.021|0.0181|0.0155|0.0131|0.013|0.0126|0.0121|0.012|0.0117|0.0115|0.0111|0.0107|0.0107|0.0106
Diversified Consumer Services,A61K|C12N|A61P|G01N|C07K|C07D|H01L|C07C|A61B|C12Q|B01J|G06F|H01M|G02B|C07H|B01D|C08F|A61L|C12P|C01B|H04N|H04L,0.2549|0.1201|0.1084|0.0914|0.0736|0.054|0.0394|0.0392|0.033|0.0307|0.0222|0.0207|0.0179|0.0127|0.0126|0.0125|0.0121|0.0121|0.012|0.0089|0.0084|0.0084
Banks,G06Q|G06F|H01L|H04L|G11C|B29C|A61K|H04M|B65D|G01N|C11D|C08F|C07C|G01R|B01J|H04B|H01R|H04W|F02M|C08G|B32B|H03K|G11B|H04N|A61B|C08L|H01M|G06K|B01D|A61M|A61C|C07D|H04Q|G02B|G07F|C23C|A47C|F16K|B23K|H01S|A61F|H05K|H01J|B65B|A61G|A61P|G05D|F16L|E21B|F25B|B65H|H03L|F04B|H01Q|G01L|H01H|G01J|F02K,0.1796|0.1205|0.0802|0.0591|0.046|0.0318|0.0308|0.0262|0.0243|0.0216|0.0153|0.0151|0.0149|0.0135|0.0132|0.0132|0.0128|0.0121|0.0116|0.0115|0.0114|0.0105|0.0102|0.01|0.01|0.0097|0.0092|0.0092|0.0089|0.008|0.0077|0.0077|0.0076|0.0075|0.0072|0.0072|0.0067|0.0066|0.0062|0.0061|0.0061|0.006|0.0053|0.0052|0.005|0.005|0.0047|0.0046|0.0043|0.0043|0.0042|0.0041|0.0038|0.0037|0.0037|0.0036|0.0035|0.0035
Biotechnology,A61K|A61P|C12N|C07D|C07K,0.3966|0.2433|0.1743|0.1447|0.132
Construction Materials,C04B|C03C|C03B|B32B|B22D|H01L|C23C|E06B|B28B|E04B|G02B|F27D|B29C|G02F|E04C|B60J|B01D|B01J|H05B|H01M|E04F|C09K|E02D|C21C|F27B|G01N|B05D|C09D|C08K|Y02W|E01C|Y02P,0.2485|0.1354|0.0842|0.0674|0.0559|0.0349|0.0338|0.0285|0.0276|0.0236|0.0236|0.0215|0.0202|0.0199|0.0191|0.016|0.0151|0.0146|0.0137|0.0121|0.0117|0.0111|0.011|0.0109|0.0099|0.0097|0.0097|0.0089|0.0087
"Electronic Equipment, Instruments and Components",H01L|G06F|H04N|G02F|G02B|G01N|H01M|G11B|H01J|H01R|H05K|G09G|H01G|H04L|G01R|H01F|H04B|H03H|G06K|C03C|G01B|H01Q|H01H|G06Q|B41J|G01S|A61B|G11C|H05B|H01S|G01F|G03F|H02K|H04W|C04B|C03B|H01P|G05B|G06T|H02M|G08B|H03K|B23K|H04M|G03B|G01D|G01J|H04R|Y02E|H02J|G07D|G01C|F24F,0.1453|0.0639|0.048|0.0478|0.0442|0.044|0.0411|0.039|0.0374|0.0368|0.0338|0.0306|0.0217|0.0182|0.0171|0.0168|0.0156|0.0151|0.0149|0.0136|0.0133|0.0131|0.0127|0.0126|0.0125|0.0119|0.011|0.0105|0.0105|0.0104|0.0097|0.0095|0.0092|0.0092|0.0087|0.0082|0.0081|0.0077|0.0076|0.0076|0.0076|0.0072|0.0069|0.0066|0.0064|0.0063|0.0059|0.0057
Software,G06F|H04L|H04N|H04W|G06Q,0.5042|0.1642|0.114|0.1024|0.0646|0.0432|0.0365
Healthcare Providers and Services,A61K|A61P|C12N|C07K|G01N|A61B|C12Q|A61M,0.4052|0.1714|0.1555|0.1191|0.1016|0.0654
Commercial Services and Supplies,A61K|G01N|B32B|G06F|C12N|B41M|B65D|H01L|G02B|A47B|A47C|B43K|C02F|C07K|A61P|G06K|B01D|C09D|B41J|B42D|G06Q|H01M|H04N|B29C|G02F|G03F|G09F|B65H|C07C|C12Q|C07D|B01J|H04M|H04L|H05K|G11B|H01J|A61B|D21H|G03H|B41F|C08L|C08F|A47F|G03B|H05B|A01N|B42F|C12P|G07B|C09J|G08B|C23C|G06T|F16H|E04B,0.0701|0.0449|0.0444|0.0406|0.0401|0.0396|0.0384|0.0365|0.0309|0.0281|0.0275|0.0273|0.0271|0.0265|0.0253|0.0221|0.021|0.0203|0.0201|0.0198|0.0192|0.0191|0.0191|0.0183|0.0176|0.016|0.016|0.0137|0.0121|0.012|0.0118|0.0111|0.0103|0.0094|0.0089|0.0085|0.0083|0.0082|0.0074|0.0071|0.0071|0.0071|0.0069|0.0069|0.0064|0.0063|0.0063|0.0062|0.006|0.0059|0.0058|0.0056|0.0055|0.0053|0.0052|0.005
Paper and Forest Products,B41M|D21H|B65D|B32B|D21C|A61F|B65B|G03C|B41J|G03F|D04H|B01D|C08L|C09D|C09J|D21F|D06M|C12N|G01N|G03G|C07C|B29C|B42D|C08J|A61K|B05D|B01J|C08F,0.2083|0.2018|0.1258|0.0568|0.0353|0.0293|0.0287|0.0241|0.0218|0.0205|0.0199|0.0188|0.0184|0.017|0.0169|0.0163|0.0155|0.0147|0.014|0.0136|0.0135|0.0134|0.0108|0.0103|0.0101|0.0099|0.0097|0.0094
Multiline Retail,B65D|F21V|A47F|F21L|B01F|A47G|A41C|A44B|E05B|F24C|D05B|G06Q|A47J|G09F|B41J|F41B|D06M|A47B|G07G|A43B|B44D|A01B|A63B|A41F|F41A|A45F|A41D|B62J|E05G|F23D|B62D,0.1743|0.1189|0.0738|0.0574|0.0506|0.041|0.0403|0.0383|0.0294|0.0253|0.0246|0.0239|0.0232|0.0226|0.0212|0.0205|0.0205|0.0191|0.0178|0.0164|0.0164|0.0157|0.013|0.013|0.0123|0.0123|0.0123|0.0123|0.0116|0.0116|0.0116
Distributors,H04N|H01H|A61K|G06F|H01L|B41J|B60N|G11B|H04L|H01M|F28F|A61Q|G06T|B41M|G06K|G03G|F02D|F16D|B29C|B60R|F16H|G02B|B62D|B60K|F02M|H05K|A46B|G03F|G03C|H04B|B60J|G03B|B23K|B60G|H01R|F28D|H04W|F21V|H02K|F02P|B65D|H04M|C09D|C08L|C08G|B65H|B60H|C12N|B32B|A47J|F02B|F24C|F25B|F16K|H03M|G01R|G06Q|H02P|A47B|A61C|B60Q|F23N|A43B|G09G|C08F|E06B|C23C|B60W|H04R|A46D|F24H|A47L|B01D|F04B|C09K|C07C,0.1258|0.0537|0.0453|0.0433|0.0335|0.03|0.0287|0.0273|0.0269|0.0202|0.0194|0.0184|0.0184|0.0168|0.0166|0.0166|0.0162|0.0155|0.0152|0.0148|0.0148|0.0137|0.0134|0.0134|0.0123|0.0118|0.0111|0.0108|0.0105|0.01|0.0095|0.0094|0.009|0.0089|0.0089|0.0088|0.0086|0.0086|0.0086|0.0085|0.008|0.0077|0.0066|0.0065|0.0065|0.0064|0.0064|0.0063|0.0062|0.0061|0.0059|0.0057|0.0057|0.0055|0.0055|0.0055|0.0051|0.0051|0.0051|0.005|0.0047|0.0046|0.0044|0.0044|0.0044|0.0043|0.0043|0.0042|0.0042|0.0041|0.0041|0.0041|0.0039|0.0038|0.0038|0.0037
Real Estate Management and Development,E04B|G06Q|A61K|E04F|E04H|E02D|E04G|F24F|E04D|H02J|A61P|A23L|E04C|F16F|E06B|A01G|B60C|F16B|G06F|H04N|H01L|H04B|H04W|C02F|G01N|G09G|H01M|A47B|B29C|D06F|F24J|F03D|F24D,0.2275|0.0649|0.0599|0.0582|0.0438|0.0438|0.0397|0.0341|0.0334|0.0329|0.0261|0.026|0.0232|0.023|0.0225|0.0222|0.0221|0.0194|0.019|0.0165|0.0155|0.0135|0.013|0.0122|0.0119|0.0115|0.0113|0.0107|0.0107|0.0104|0.0088|0.0086|0.0079
Metals and Mining,C22C|C21D|C23C|B21B|B22D|B23K|C22B|H01L|C21C|G01N|C25D|C04B|B22F|B32B|H01F|H01M|B21D|B01J|B01D|C22F|B21C|F16L|C21B|B29C|H05K|F27D|H01B|G02B|C09D|F27B|C25C|B05D|B65G|E02D|Y02E|C30B|F28F|B23B|C01G|C10B|B65D|C01B|E21B|E04B|G01B|Y02P,0.1938|0.0825|0.0678|0.0662|0.064|0.0514|0.0392|0.0374|0.0263|0.0252|0.0241|0.0225|0.0222|0.0217|0.0202|0.0198|0.0195|0.0174|0.0168|0.0168|0.0159|0.0158|0.0158|0.0125|0.0114|0.0113|0.0111|0.0109|0.0086|0.0083|0.0082|0.0082|0.008
Health Care Technology,G03C|A61B|G06F|B41M|G03F|G06Q|G06T|G01N|G03G|H04N|B41J|C07D|A61K|C09B|C07C|G06K|B41C|C09D|G03B|C09K|B41N|G16H|G21K|H04L,0.1644|0.1571|0.1123|0.0709|0.0683|0.0556|0.0508|0.0372|0.0369|0.0324|0.0274|0.0265|0.0235|0.019|0.0179|0.0179|0.0179|0.0176|0.0176|0.0175|0.0162
Independent Power and Renewable Electricity Producers,H01M|C07C|C08F|C07D|B01J|C08L|A01N|C08G|C08K|C01B|C07F|B01D|B29C|C08J|C09B|C07B|F01K|C10L|B32B|G21C|Y02E|C25C|G01R|G01N|H01L|H02J|F23C|F03D,0.2207|0.1699|0.1646|0.071|0.0656|0.0654|0.0499|0.0394|0.0347|0.03|0.0177|0.0149|0.0135|0.0132|0.0129|0.0123|0.0113
Semiconductors and Semiconductor Equipment,H01L|G06F|G11C|H04L|H04W|H04N|H04B|H03K|C23C|G01R|G03F|G09G|G02F|H01J|H02M,0.5011|0.1066|0.0701|0.0697|0.0609|0.0495|0.0391|0.0239|0.0235|0.0216|0.0171|0.0147|0.0145
Specialty Retail,B01J|C07C|D06F|G06Q|G07D|F25D|G06F|G07F|A61K|A47C|B01D|C08F|F16D|C01B|A61Q|A47L|B60K|B05B|F16H|H01M|B65D|A43B|B03C|A01K|A01G|F24C|C08L|G11B|A47F|F04D|F01N|C10G|C07B|A47B|F25B|G06K|H04L|A61F|A61L|G01N|F04C|C07D|C08G|H05B|C02F|G09F|H02K|B25G|C05G|A01D|F16L|C10L|A61B,0.1269|0.0889|0.0467|0.045|0.0399|0.0371|0.0321|0.0315|0.0278|0.0274|0.027|0.0207|0.0194|0.0184|0.0184|0.0158|0.0154|0.0149|0.0147|0.0142|0.0142|0.0141|0.0141|0.0135|0.0133|0.0131|0.0127|0.0127|0.0126|0.0124|0.0122|0.0117|0.0115|0.0103|0.0101|0.0092|0.0085|0.0083|0.0083|0.008|0.008|0.008|0.0078|0.0075|0.0074|0.0074|0.0071|0.007|0.0069|0.0067|0.0064|0.0063|0.0061
Life Sciences Tools and Services,G01N|A61K|C12N|A61P|C07D|C07K|C12Q|C07C|C07H|B01L|B01D|H01J|C12M|G02B|G01R|G06F,0.206|0.2049|0.1332|0.1036|0.0892|0.0711|0.0664|0.0271|0.0256|0.0252|0.0244|0.0188|0.0185
Leisure Products,A63B|A63F|G10H|B62M|A63H|A01K|G02B|A43B|B62K|G03B|A63C|H04N|B63H|B29C|G06F|B62J|C08L|G07F|G11B|F02B|H04R|A61B|H01L|B60B|B62L|G10C|F16H|B62B|G10D|E04H|F41A|G06Q|G10L|G10K|F16D|F02M,0.1721|0.1137|0.0754|0.0569|0.0554|0.0452|0.0421|0.0303|0.0287|0.0267|0.0266|0.0248|0.0241|0.0209|0.0201|0.0182|0.0176|0.0174|0.0143|0.0141|0.0136|0.0135|0.0122|0.0117|0.0109|0.0108|0.0108|0.0102|0.0095|0.0087|0.008|0.008|0.0078|0.0075|0.0074|0.0073
Consumer Finance,G06Q|G06F|G06K,0.8292|0.165|0.074
Professional Services,A61K|G06F|H01L|G01N|A61P|C12N|B01J|H04L|C07D|C07C|H04N|H01M|C07K|C10G|G02B|B01D|H04W|B32B|A23L|C08F|G06Q|C09J|C01B|H04B|C12Q|G06K|C08G|C08L|G06T|C23C|E21B|B29C|C04B|H01H|A61B|G01R|C09D|C09K|B65D|A01N|A61L|C12P|A47J|H01F|G01V|G02F|C08J|H02J|H01S|C08K,0.1005|0.0934|0.0599|0.0517|0.0515|0.0459|0.0448|0.0392|0.0369|0.0348|0.0335|0.0303|0.0247|0.024|0.0218|0.0217|0.0188|0.0135|0.0132|0.0126|0.0119|0.0115|0.0111|0.0109|0.0105|0.0103|0.0098|0.0097|0.0095|0.0084|0.0083|0.0083|0.0076|0.0073|0.0072|0.0071|0.007|0.0063|0.0061|0.006|0.0059|0.0059|0.0058|0.0058|0.0057|0.0055|0.0055|0.0052|0.0052|0.0051
Electric Utilities,G01R|H02J|H02G|G06Q|H02B|H01R|G01N|G06F|H01M|H02H|H01B|H04L|B01D|H01H|H01F|G21C|E04H|H04B|G08B|G05B|G08C|H02M|H01L|B25B|H04N|B08B|G02B|C04B|B01J|E02D|B65H|G01B|G01M|H04W|C02F|Y04S,0.1334|0.0966|0.0851|0.0711|0.0447|0.0442|0.0366|0.0363|0.0325|0.0307|0.0291|0.0286|0.0285|0.026|0.0255|0.0218|0.0171|0.0154|0.0144|0.0139|0.0134|0.0133|0.0127|0.0118|0.0113|0.0103|0.01|0.0099|0.0097|0.0096|0.0095|0.0093|0.0091|0.009|0.0078|0.0078|0.0078
Insurance,G06Q|G06F|G07C|H04W|H04L|H04M|A43B|G06K|E04B|A47J|G08G|G01C|B60W|A61F,0.6078|0.1467|0.024|0.0238|0.0229|0.0207|0.0206|0.0191|0.0179|0.0177|0.0141|0.0133|0.0122|0.0115|0.0102|0.0102|0.0092
Internet Software and Services,G06F|H04L|G06Q|H04N|H04W,0.4637|0.2157|0.1661|0.1428|0.0597
