 LIMITED LIABILITY CO,LLC
 LTD LIABILITY CO,LLC
 A B , AB 
 A CALIFORNIA CORP , CORP 
 A DELAWARE CORP , CORP 
 AKTIEBOLAGET , AB 
 AKTIEBOLAG , AB 
 ACADEMY , ACAD 
 ACTIEN GESELLSCHAFT , AG 
 ACTIENGESELLSCHAFT , AG 
 AKTIEN GESELLSCHAFT , AG 
 AKTIENGESELLSCHAFT , AG 
 AGRICOLAS , AGRIC 
 AGRICOLA , AGRIC 
 AGRICOLES , AGRIC 
 AGRICOLE , AGRIC 
 AGRICOLI , AGRIC 
 AGRICOLTURE , AGRIC 
 AGRICULTURA , AGRIC 
 AGRICULTURAL , AGRIC 
 AGRICULTURE , AGRIC 
 AKADEMIA , AKAD 
 AKADEMIEI , AKAD 
 AKADEMIE , AKAD 
 AKADEMII , AKAD 
 AKADEMIJA , AKAD 
 AKADEMIYA , AKAD 
 AKADEMIYAKH , AKAD 
 AKADEMIYAM , AKAD 
 AKADEMIYAMI , AKAD 
 AKADEMIYU , AKAD 
 AKADEMI , AKAD 
 ALLGEMEINER , ALLG 
 ALLGEMEINE , ALLG 
 ANTREPRIZA , ANTR 
 APARARII , APAR 
 APARATELOR , APAR 
 APPARATEBAU , APP 
 APPARATUS , APP 
 APPARECHHI , APP 
 APPAREILLAGES , APP 
 APPAREILLAGE , APP 
 APPAREILS , APP 
 APPAREIL , APP 
 APARATE , APAR 
 APPARATE , APP 
 APPLICATIONS , APPL 
 APPLICATION , APPL 
 APPLICAZIONE , APPL 
 APPLICAZIONI , APPL 
 ANPARTSSELSKABET , APS 
 ANPARTSSELSKAB , APS 
 A/S , AS 
 AKTIESELSKABET , AS 
 AKTIESELSKAB , AS 
 ASSOCIACAO , ASSOC 
 ASSOCIATED , ASSOC 
 ASSOCIATES , ASSOCIATES 
 ASSOCIATE , ASSOCIATES 
 ASSOCIATION , ASSOC 
 BETEILIGUNGSGESELLSCHAFT MBH , BET GMBH 
 BETEILIGUNGS GESELLSCHAFT MIT , BET GMBH 
 BETEILIGUNGSGESELLSCHAFT , BET GES 
 BESCHRANKTER HAFTUNG , BET GMBH 
 BROEDERNA , BRDR 
 BROEDRENE , BRDR 
 BRODERNA , BRDR 
 BRODRENE , BRDR 
 BROTHERS , BROS 
 BESLOTEN VENNOOTSCHAP MET , BV 
 BESLOTEN VENNOOTSCHAP , BV 
 BEPERKTE AANSPRAKELIJKHEID , BV 
 CLOSE CORPORATION , CC 
 CENTER , CENT 
 CENTRAAL , CENT 
 CENTRALA , CENT 
 CENTRALES , CENT 
 CENTRALE , CENT 
 CENTRAL , CENT 
 CENTRAUX , CENT 
 CENTRE , CENT 
 CENTRO , CENT 
 CENTRUL , CENT 
 CENTRUM , CENT 
 CERCETARE , CERC 
 CERCETARI , CERC 
 CHEMICALS , CHEM 
 CHEMICAL , CHEM 
 CHEMICKEJ , CHEM 
 CHEMICKE , CHEM 
 CHEMICKYCH , CHEM 
 CHEMICKY , CHEM 
 CHEMICZNE , CHEM 
 CHEMICZNY , CHEM 
 CHEMIE , CHEM 
 CHEMII , CHEM 
 CHEMISCHE , CHEM 
 CHEMISCH , CHEM 
 CHEMISKEJ , CHEM 
 CHEMISTRY , CHEM 
 CHIMICA , CHIM 
 CHIMICE , CHIM 
 CHIMICI , CHIM 
 CHIMICO , CHIM 
 CHIMIC , CHIM 
 CHIMIEI , CHIM 
 CHIMIE , CHIM 
 CHIMIESKOJ , CHIM 
 CHIMII , CHIM 
 CHIMIKO , CHIM 
 CHIMIQUES , CHIM 
 CHIMIQUE , CHIM 
 CHIMIYAKH , CHIM 
 CHIMIYAMI , CHIM 
 CHIMIYAM , CHIM 
 CHIMIYA , CHIM 
 CHIMIYU , CHIM 
 COMPAGNIE FRANCAISE , CIE FR 
 COMPAGNIE GENERALE , CIE GEN 
 COMPAGNIE INDUSTRIALE , CIE IND 
 COMPAGNIE INDUSTRIELLE , CIE IND 
 COMPAGNIE INDUSTRIELLES , CIE IND 
 COMPAGNIE INTERNATIONALE , CIE INT 
 COMPAGNIE NATIONALE , CIE NAT 
 COMPAGNIE PARISIENNE , CIE PARIS 
 COMPAGNIE PARISIENN , CIE PARIS 
 COMPAGNIE PARISIEN , CIE PARIS 
 COMPANIES , CO 
 COMPAGNIA , CIA 
 COMPANHIA , CIA 
 COMPAGNIE , CIE 
 COMPANY , CO 
 COMBINATUL , COMB 
 COMMERCIALE , COMML 
 COMMERCIAL , COMML 
 CONSOLIDATED , CONSOL 
 CONSTRUCCIONES , CONSTR 
 CONSTRUCCIONE , CONSTR 
 CONSTRUCCION , CONSTR 
 CONSTRUCTIE , CONSTR 
 CONSTRUCTII , CONSTR 
 CONSTRUCTIILOR , CONSTR 
 CONSTRUCTIONS , CONSTR 
 CONSTRUCTION , CONSTR 
 CONSTRUCTORTUL , CONSTR 
 CONSTRUCTORUL , CONSTR 
 CONSTRUCTOR , CONSTR 
 CO OPERATIVES , COOP 
 CO OPERATIVE , COOP 
 COOPERATIEVE , COOP 
 COOPERATIVA , COOP 
 COOPERATIVES , COOP 
 COOPERATIVE , COOP 
 INCORPORATED , INC 
 INCORPORATION , INC 
 CORPORATE , CORP 
 CORPORATION OF AMERICA , CORP 
 CORPORATION , CORP 
 CORPORASTION , CORP 
 CORPORATIOON , CORP 
 COSTRUZIONI , COSTR 
 DEMOKRATISCHEN REPUBLIK , DDR 
 DEMOKRATISCHE REPUBLIK , DDR 
 DEPARTEMENT , DEPT 
 DEPARTMENT , DEPT 
 DEUTSCHES , DEUT 
 DEUTSCHEN , DEUT 
 DEUTSCHER , DEUT 
 DEUTSCHLAND , DEUT 
 DEUTSCHE , DEUT 
 DEUTSCH , DEUT 
 DEVELOPMENTS , DEV 
 DEVELOPMENT , DEV 
 DEVELOPPEMENTS , DEV 
 DEVELOPPEMENT , DEV 
 DEVELOP , DEV 
 DIVISIONE , DIV 
 DIVISION , DIV 
 ENGINEERING , ENG 
 EQUIPEMENTS , EQUIP 
 EQUIPEMENT , EQUIP 
 EQUIPMENTS , EQUIP 
 EQUIPMENT , EQUIP 
 ESTABLISHMENTS , ESTAB 
 ESTABLISHMENT , ESTAB 
 ESTABLISSEMENTS , ESTAB 
 ESTABLISSEMENT , ESTAB 
 ETABLISSEMENTS , ETAB 
 ETABLISSEMENT , ETAB 
 ETABS , ETAB 
 ETS , ETAB 
 ETUDES , ETUD 
 ETUDE , ETUD 
 EUROPAEISCHEN , EURO 
 EUROPAEISCHES , EURO 
 EUROPAEISCHE , EURO 
 EUROPAISCHEN , EURO 
 EUROPAISCHES , EURO 
 EUROPAISCHE , EURO 
 EUROPEAN , EURO 
 EUROPEENNE , EURO 
 EUROPEEN , EURO 
 EUROPEA , EURO 
 EUROPE , EURO 
 EINGETRAGENER VEREIN , EV 
 EXPLOATERINGS , EXPL 
 EXPLOATERING , EXPL 
 EXPLOITATIE , EXPL 
 EXPLOITATIONS , EXPL 
 EXPLOITATION , EXPL 
 FIRMA , FA 
 FABBRICAZIONI , FAB 
 FABBRICHE , FAB 
 FABRICATIONS , FAB 
 FABRICATION , FAB 
 FABBRICA , FAB 
 FABRICA , FAB 
 FABRIEKEN , FAB 
 FABRIEK , FAB 
 FABRIKER , FAB 
 FABRIK , FAB 
 FABRIQUES , FAB 
 FABRIQUE , FAB 
 FABRIZIO , FAB 
 FABRYKA , FAB 
 FARMACEUTICA , FARM 
 FARMACEUTICE , FARM 
 FARMACEUTICHE , FARM 
 FARMACEUTICI , FARM 
 FARMACEUTICOS , FARM 
 FARMACEUTICO , FARM 
 FARMACEUTISK , FARM 
 FARMACEVTSKIH , FARM 
 FARMACIE , FARM 
 FONDATION , FOND 
 FONDAZIONE , FOND 
 FOUNDATIONS , FOUND 
 FOUNDATION , FOUND 
 FRANCAISE , FR 
 FRANCAIS , FR 
 F LLI , FRAT 
 FLLI , FRAT 
 FRATELLI , FRAT 
 GEBRODERS , GEBR 
 GEBRODER , GEBR 
 GEBROEDERS , GEBR 
 GEBROEDER , GEBR 
 GEBRUDERS , GEBR 
 GEBRUDER , GEBR 
 GEBRUEDERS , GEBR 
 GEBRUEDER , GEBR 
 GEB , GEBR 
 GENERALA , GEN 
 GENERALES , GEN 
 GENERALE , GEN 
 GENERAL , GEN 
 GENERAUX , GEN 
 GEWERKSCHAFT , GEW 
 GAKKO HOJIN , GH 
 GAKKO HOUJIN , GH 
 GUTEHOFFNUNGSCHUETTE , GHH 
 GUTEHOFFNUNGSCHUTTE , GHH 
 GOMEI GAISHA , GK 
 GOMEI KAISHA , GK 
 GOSHI KAISHA , GK 
 GOUSHI GAISHA , GK 
 GESELLSCHAFT MBH , GMBH 
 GESELLSCHAFT MIT BESCHRANKTER HAFTUNG , GMBH 
 GROUPEMENT , GRP 
 GROUPMENT , GRP 
 HANDELSMAATSCHAPPIJ , HANDL 
 HANDELSMIJ , HANDL 
 HANDELS BOLAGET , HB 
 HANDELSBOLAGET , HB 
 HER MAJESTY THE QUEEN IN RIGHT OF CANADA AS REPRESENTED BY THE MINISTER OF , CANADA MIN OF 
 HER MAJESTY THE QUEEN , UK 
 INDUSTRIAS , IND 
 INDUSTRIALS , IND 
 INDUSTRIAL , IND 
 INDUSTRIALA , IND 
 INDUSTRIALE , IND 
 INDUSTRIALIZARE , IND 
 INDUSTRIALIZAREA , IND 
 INDUSTRIALI , IND 
 INDUSTRIEELE , IND 
 INDUSTRIEI , IND 
 INDUSTRIELS , IND 
 INDUSTRIELLES , IND 
 INDUSTRIELLE , IND 
 INDUSTRIELL , IND 
 INDUSTRIEL , IND 
 INDUSTRIER , IND 
 INDUSTRIES , IND 
 INDUSTRII , IND 
 INDUSTRIJ , IND 
 INDUSTRIYAKH , IND 
 INDUSTRIYAM , IND 
 INDUSTRIYAMI , IND 
 INDUSTRIYA , IND 
 INDUSTRIYU , IND 
 INDUSTRIA , IND 
 INDUSTRIE , IND 
 INDUSTRI , IND 
 INDUSTRY , IND 
 INGENIERIA , ING 
 INGENIER , ING 
 INGENIEURS , ING 
 INGENIEURBUERO , ING 
 INGENIEURBUREAU , ING 
 INGENIEURBURO , ING 
 INGENIEURGESELLSCHAFT , ING 
 INGENIEURSBUREAU , ING 
 INGENIEURTECHNISCHES , ING 
 INGENIEURTECHNISCHE , ING 
 INGENIEUR , ING 
 INGENIOERFIRMAET , ING 
 INGENIORSFIRMAN , ING 
 INGENIORSFIRMA , ING 
 INGENJORSFIRMA , ING 
 INGINERIE , ING 
 INSTITUTE FRANCAISE , INST FR 
 INSTITUT FRANCAIS , INST FR 
 INSTITUTE NATIONALE , INST NAT 
 INSTITUT NATIONAL , INST NAT 
 INSTITUTAMI , INST 
 INSTITUTAMKH , INST 
 INSTITUTAM , INST 
 INSTITUTA , INST 
 INSTITUTES , INST 
 INSTITUTET , INST 
 INSTITUTE , INST 
 INSTITUTOM , INST 
 INSTITUTOV , INST 
 INSTITUTO , INST 
 INSTITUTT , INST 
 INSTITUTUL , INST 
 INSTITUTU , INST 
 INSTITUTY , INST 
 INSTITUT , INST 
 INSTITUUT , INST 
 INSTITZHT , INST 
 INSTYTUT , INST 
 INSINOORITOMISTO , INSTMSTO 
 INSTRUMENTS , INSTR 
 INSTRUMENTATION , INSTR 
 INSTRUMENTE , INSTR 
 INSTRUMENT , INSTR 
 INTERNATL , INT 
 INTERNACIONAL , INT 
 INTERNATIONAL , INT 
 INTERNATIONALEN , INT 
 INTERNATIONALE , INT 
 INTERNATIONAUX , INT 
 INTERNATIONELLA , INT 
 INTERNAZIONALE , INT 
 INTL , INT 
 INTREPRINDEREA , INTR 
 ISTITUTO , IST 
 ITALIANA , ITAL 
 ITALIANE , ITAL 
 ITALIANI , ITAL 
 ITALIANO , ITAL 
 ITALIENNE , ITAL 
 ITALIEN , ITAL 
 ITALIAN , ITAL 
 ITALIA , ITAL 
 ITALI , ITAL 
 ITALO , ITAL 
 ITALY , ITAL 
 JUNIOR , JR 
 KOMMANDIT BOLAG , KB 
 KOMMANDIT BOLAGET , KB 
 KOMMANDITBOLAGET , KB 
 KOMMANDITBOLAG , KB 
 KOMMANDIT GESELLSCHAFT , KG 
 KOMMANDITGESELLSCHAFT , KG 
 KOMMANDIT GESELLSCHAFT AUF AKTIEN , KGAA 
 KOMMANDITGESELLSCHAFT AUF AKTIEN , KGAA 
 KUTATO INTEZETE , KI 
 KUTATO INTEZET , KI 
 KUTATOINTEZETE , KI 
 KUTATOINTEZET , KI 
 KABUSHIKI GAISHA , KK 
 KABUSHIKI KAISHA , KK 
 KABUSHIKI GAISYA , KK 
 KABUSHIKI KAISYA , KK 
 KABUSHIKIGAISHA , KK 
 KABUSHIKIKAISHA , KK 
 KABUSHIKIGAISYA , KK 
 KABUSHIKIKAISYA , KK 
 KOMBINATU , KOMB 
 KOMBINATY , KOMB 
 KOMBINAT , KOMB 
 KONINKLIJKE , KONINK 
 KONCERNOVY PODNIK , KP 
 KUNSTSTOFFTECHNIK , KUNST 
 KUNSTSTOFF , KUNST 
 LABORATOIRES , LAB 
 LABORATOIRE , LAB 
 LABORATOIR , LAB 
 LABORATORIEI , LAB 
 LABORATORIES , LAB 
 LABORATORII , LAB 
 LABORATORIJ , LAB 
 LABORATORIOS , LAB 
 LABORATORIO , LAB 
 LABORATORIUM , LAB 
 LABORATORI , LAB 
 LABORATORY , LAB 
 LABORTORI , LAB 
 LAVORAZA , LAVORAZ 
 LAVORAZIONE , LAVORAZ 
 LAVORAZIONI , LAVORAZ 
 LAVORAZIO , LAVORAZ 
 LAVORAZI , LAVORAZ 
 LIMITED PARTNERSHIP , LP 
 LIMITED , LTD 
 LTD LTEE , LTD 
 MASCHINENVERTRIEB , MASCH 
 MASCHINENBAUANSTALT , MASCHBAU 
 MASCHINENBAU , MASCHBAU 
 MASCHINENFABRIEK , MASCHFAB 
 MASCHINENFABRIKEN , MASCHFAB 
 MASCHINENFABRIK , MASCHFAB 
 MASCHINENFAB , MASCHFAB 
 MASCHINEN , MASCH 
 MASCHIN , MASCH 
 MIT BESCHRANKTER HAFTUNG , MBH 
 MANUFACTURINGS , MFG 
 MANUFACTURING , MFG 
 MANIFATTURAS , MFR 
 MANIFATTURA , MFR 
 MANIFATTURE , MFR 
 MANUFACTURAS , MFR 
 MANUFACTURERS , MFR 
 MANUFACTURER , MFR 
 MANUFACTURES , MFR 
 MANUFACTURE , MFR 
 MANUFATURA , MFR 
 MAATSCHAPPIJ , MIJ 
 MEDICAL , MED 
 MINISTERE , MIN 
 MINISTERIUM , MIN 
 MINISTERO , MIN 
 MINISTERSTVAKH , MIN 
 MINISTERSTVAM , MIN 
 MINISTERSTVAMI , MIN 
 MINISTERSTVA , MIN 
 MINISTERSTVE , MIN 
 MINISTERSTVO , MIN 
 MINISTERSTVOM , MIN 
 MINISTERSTVU , MIN 
 MINISTERSTV , MIN 
 MINISTERSTWO , MIN 
 MINISTERUL , MIN 
 MINISTRE , MIN 
 MINISTRY , MIN 
 MINISTER , MIN 
 MAGYAR TUDOMANYOS AKADEMIA , MTA 
 NATIONAAL , NAT 
 NATIONAL , NAT 
 NATIONALE , NAT 
 NATIONAUX , NAT 
 NATL , NAT 
 NAZIONALE , NAZ 
 NAZIONALI , NAZ 
 NORDDEUTSCH , NORDDEUT 
 NORDDEUTSCHE , NORDDEUT 
 NORDDEUTSCHER , NORDDEUT 
 NORDDEUTSCHES , NORDDEUT 
 NARODNI PODNIK , NP 
 NARODNIJ PODNIK , NP 
 NARODNY PODNIK , NP 
 NAAMLOOSE VENOOTSCHAP , NV 
 NAAMLOZE VENNOOTSCHAP , NV 
 N V , NV
 B V , BV 
 OESTERREICHISCHES , OESTERR 
 OESTERREICHISCHE , OESTERR 
 OESTERREICHISCH , OESTERR 
 OESTERREICH , OESTERR 
 OSTERREICHISCHES , OESTERR 
 OSTERREICHISCHE , OESTERR 
 OSTERREICHISCH , OESTERR 
 OSTERREICH , OESTERR 
 OFFICINE MECCANICA , OFF MEC 
 OFFICINE MECCANICHE , OFF MEC 
 OFFICINE NATIONALE , OFF NAT 
 OFFENE HANDELSGESELLSCHAFT , OHG 
 ONTWIKKELINGSBUREAU , ONTWIK 
 ONTWIKKELINGS , ONTWIK 
 OBOROVY PODNIK , OP 
 ORGANISATIE , ORG 
 ORGANISATIONS , ORG 
 ORGANISATION , ORG 
 ORGANIZATIONS , ORG 
 ORGANIZATION , ORG 
 ORGANIZZAZIONE , ORG 
 OSAKEYHTIO , OY 
 PHARMACEUTICALS , PHARM 
 PHARMACEUTICAL , PHARM 
 PHARMACEUTICA , PHARM 
 PHARMACEUTIQUES , PHARM 
 PHARMACEUTIQUE , PHARM 
 PHARMAZEUTIKA , PHARM 
 PHARMAZEUTISCHEN , PHARM 
 PHARMAZEUTISCHE , PHARM 
 PHARMAZEUTISCH , PHARM 
 PHARMAZIE , PHARM 
 PUBLIC LIMITED COMPANY , PLC 
 PRELUCRAREA , PRELUC 
 PRELUCRARE , PRELUC 
 PRODOTTI , PROD 
 PRODUCE , PROD 
 PRODUCTS , PROD 
 PRODUCT , PROD 
 PRODUCTAS , PROD 
 PRODUCTA , PROD 
 PRODUCTIE , PROD 
 PRODUCTOS , PROD 
 PRODUCTO , PROD 
 PRODUCTORES , PROD 
 PRODUITS , PROD 
 PRODUIT , PROD 
 PRODUKCJI , PROD 
 PRODUKTER , PROD 
 PRODUKTE , PROD 
 PRODUKT , PROD 
 PRODUSE , PROD 
 PRODUTOS , PROD 
 PRODUIT CHIMIQUES , PROD CHIM 
 PRODUIT CHIMIQUE , PROD CHIM 
 PRODUCTIONS , PRODN 
 PRODUCTION , PRODN 
 PRODUKTIONS , PRODN 
 PRODUKTION , PRODN 
 PRODUZIONI , PRODN 
 PROIECTARE , PROI 
 PROIECTARI , PROI 
 PRZEDSIEBIOSTWO , PRZEDSIEB 
 PRZEMYSLU , PRZEYM 
 PROPRIETARY , PTY 
 PERSONENVENNOOTSCHAP MET , PVBA 
 REALISATIONS , REAL 
 REALISATION , REAL 
 RECHERCHES , RECH 
 RECHERCHE , RECH 
 RECHERCHES ET DEVELOPMENTS , RECH & DEV 
 RECHERCHE ET DEVELOPMENT , RECH & DEV 
 RECHERCHES ET DEVELOPPEMENTS , RECH & DEV 
 RECHERCHE ET DEVELOPPEMENT , RECH & DEV 
 RESEARCH & DEVELOPMENT , RES & DEV 
 RESEARCH AND DEVELOPMENT , RES & DEV 
 RESEARCH , RES 
 RIJKSUNIVERSITEIT , RIJKSUNIV 
 SECRETATY , SECRETARY 
 SECRETRY , SECRETARY 
 SECREATRY , SECRETARY 
 SOCIEDAD ANONIMA , SA 
 SOCIETE ANONYME DITE , SA 
 SOCIETE ANONYME , SA 
 SOCIETE A RESPONSABILITE LIMITEE , SARL 
 SOCIETE A RESPONSIBILITE LIMITEE , SARL 
 SOCIETA IN ACCOMANDITA SEMPLICE , SAS 
 SCHWEIZERISCHES , SCHWEIZ 
 SCHWEIZERISCHER , SCHWEIZ 
 SCHWEIZERISCHE , SCHWEIZ 
 SCHWEIZERISCH , SCHWEIZ 
 SCHWEIZER , SCHWEIZ 
 SCIENCES , SCI 
 SCIENCE , SCI 
 SCIENTIFICA , SCI 
 SCIENTIFIC , SCI 
 SCIENTIFIQUES , SCI 
 SCIENTIFIQUE , SCI 
 SHADAN HOJIN , SH 
 SIDERURGICAS , SIDER 
 SIDERURGICA , SIDER 
 SIDERURGIC , SIDER 
 SIDERURGIE , SIDER 
 SIDERURGIQUE , SIDER 
 SOCIETA IN NOME COLLECTIVO , SNC 
 SOCIETE EN NOM COLLECTIF , SNC 
 SOCIETE ALSACIENNE , SOC ALSAC 
 SOCIETE APPLICATION , SOC APPL 
 SOCIETA APPLICAZIONE , SOC APPL 
 SOCIETE AUXILIAIRE , SOC AUX 
 SOCIETE CHIMIQUE , SOC CHIM 
 SOCIEDAD CIVIL , SOC CIV 
 SOCIETE CIVILE , SOC CIV 
 SOCIETE COMMERCIALES , SOC COMML 
 SOCIETE COMMERCIALE , SOC COMML 
 SOCIEDAD ESPANOLA , SOC ESPAN 
 SOCIETE ETUDES , SOC ETUD 
 SOCIETE ETUDE , SOC ETUD 
 SOCIETE EXPLOITATION , SOC EXPL 
 SOCIETE GENERALE , SOC GEN 
 SOCIETE INDUSTRIELLES , SOC IND 
 SOCIETE INDUSTRIELLE , SOC IND 
 SOCIETE MECANIQUES , SOC MEC 
 SOCIETE MECANIQUE , SOC MEC 
 SOCIETE NATIONALE , SOC NAT 
 SOCIETE NOUVELLE , SOC NOUV 
 SOCIETE PARISIENNE , SOC PARIS 
 SOCIETE PARISIENN , SOC PARIS 
 SOCIETE PARISIEN , SOC PARIS 
 SOCIETE TECHNIQUES , SOC TECH 
 SOCIETE TECHNIQUE , SOC TECH 
 SDRUZENI PODNIKU , SP 
 SDRUZENI PODNIK , SP 
 SOCIETA PER AZIONI , SPA 
 SPITALUL , SPITAL 
 SOCIETE PRIVEE A RESPONSABILITE LIMITEE , SPRL 
 SOCIEDAD DE RESPONSABILIDAD LIMITADA , SRL 
 STIINTIFICA , STIINT 
 SUDDEUTSCHES , SUDDEUT 
 SUDDEUTSCHER , SUDDEUT 
 SUDDEUTSCHE , SUDDEUT 
 SUDDEUTSCH , SUDDEUT 
 SOCIEDADE , SOC 
 SOCIEDAD , SOC 
 SOCIETA , SOC 
 SOCIETE , SOC 
 SOCIETY , SOC 
 SA DITE , SA 
 TECHNICAL , TECH 
 TECHNICO , TECH 
 TECHNICZNY , TECH 
 TECHNIKAI , TECH 
 TECHNIKI , TECH 
 TECHNIK , TECH 
 TECHNIQUES , TECH 
 TECHNIQUE , TECH 
 TECHNISCHES , TECH 
 TECHNISCHE , TECH 
 TECHNISCH , TECH 
 TECHNOLOGY , TECH 
 TECHNOLOGIES , TECH 
 TELECOMMUNICATIONS , TELECOM 
 TELECOMMUNICACION , TELECOM 
 TELECOMMUNICATION , TELECOM 
 TELECOMMUNICAZIONI , TELECOM 
 TELECOMUNICAZIONI , TELECOM 
 TRUSTUL , TRUST 
 UNITED KINGDOM , UK 
 SECRETARY OF STATE FOR , UK SEC FOR 
 UNIVERSIDADE , UNIV 
 UNIVERSIDAD , UNIV 
 UNIVERSITA DEGLI STUDI , UNIV 
 UNIVERSITAET , UNIV 
 UNIVERSITAIRE , UNIV 
 UNIVERSITAIR , UNIV 
 UNIVERSITATEA , UNIV 
 UNIVERSITEIT , UNIV 
 UNIVERSITETAMI , UNIV 
 UNIVERSITETAM , UNIV 
 UNIVERSITETE , UNIV 
 UNIVERSITETOM , UNIV 
 UNIVERSITETOV , UNIV 
 UNIVERSITETU , UNIV 
 UNIVERSITETY , UNIV 
 UNIVERSITETA , UNIV 
 UNIVERSITAT , UNIV 
 UNIVERSITET , UNIV 
 UNIVERSITE , UNIV 
 UNIVERSITY , UNIV 
 UNIVERSITA , UNIV 
 UNIWERSYTET , UNIV 
 UNITED STATES OF AMERICA ADMINISTRATOR , US ADMIN 
 UNITED STATES OF AMERICA AS REPRESENTED BY THE ADMINISTRATOR , US ADMIN 
 UNITED STATES OF AMERICA AS REPRESENTED BY THE DEPT , US DEPT 
 UNITED STATES OF AMERICA AS REPRESENTED BY THE UNITED STATES DEPT , US DEPT 
 UNITED STATES OF AMERICAN AS REPRESENTED BY THE UNITED STATES DEPT , US DEPT 
 UNITED STATES GOVERNMENT AS REPRESENTED BY THE SECRETARY OF , US SEC 
 UNITED STATES OF AMERICA REPRESENTED BY THE SECRETARY , US SEC 
 UNITED STATES OF AMERICA AS REPRESENTED BY THE SECRETARY , US SEC 
 UNITED STATES OF AMERICAS AS REPRESENTED BY THE SECRETARY , US SEC 
 UNITES STATES OF AMERICA AS REPRESENTED BY THE SECRETARY , US SEC 
 UNITED STATES OF AMERICA SECRETARY OF , US SEC 
 UNITED STATES OF AMERICA , USA 
 UNITED STATES , USA 
 UTILAJE , UTIL 
 UTILAJ , UTIL 
 UTILISATIONS VOLKSEIGENER BETRIEBE , VEB 
 UTILISATION VOLKSEIGENER BETRIEBE , VEB 
 VEB KOMBINAT , VEB KOMB 
 VEREENIGDE , VER 
 VEREINIGTES VEREINIGUNG , VER 
 VEREINIGTE VEREINIGUNG , VER 
 VEREIN , VER 
 VERENIGING , VER 
 VERWALTUNGEN , VERW 
 VERWALTUNGS , VERW 
 VERWERTUNGS , VERW 
 VERWALTUNGSGESELLSCHAFT , VERW GES 
 VYZK USTAV , VU 
 VYZKUMNY USTAV , VU 
 VYZKUMNYUSTAV , VU 
 VEREINIGUNG VOLKSEIGENER BETRIEBUNG , VVB 
 VYZK VYVOJOVY USTAV , VVU 
 VYZKUMNY VYVOJOVY USTAV , VVU 
 WERKZEUGMASCHINENKOMBINAT , WERKZ MASCH KOMB 
 WERKZEUGMASCHINENFABRIK , WERKZ MASCHFAB 
 WESTDEUTSCHES , WESTDEUT 
 WESTDEUTSCHER , WESTDEUT 
 WESTDEUTSCHE , WESTDEUT 
 WESTDEUTSCH , WESTDEUT 
 WISSENSCHAFTLICHE(S) , WISS 
 WISSENSCHAFTLICHES TECHNISCHES ZENTRUM , WTZ 
 YUGEN KAISHA , YG YUGEN GAISHA 
 YUUGEN GAISHA , YG YUGEN GAISHA 
 YUUGEN KAISHA , YG YUGEN GAISHA 
 YUUGEN KAISYA , YG YUGEN GAISHA 
 ZAVODU , ZAVOD 
 ZAVODY , ZAVOD 
 ZENTRALES , ZENT 
 ZENTRALE , ZENT 
 ZENTRALEN , ZENT 
 ZENTRALNA , ZENT 
 ZENTRUM , ZENT 
 ZENTRALINSTITUT , ZENT INST 
 ZENTRALLABORATORIUM , ZENT LAB 
 ZAIDAN HOJIN , ZH 
 ZAIDAN HOUJIN , ZH 
 LIMITADA , LTDA 
 SECRETARY , SEC 
 RECH & DEV ,  R&D 
 PUBLIC LIMITED ,  PLC 
 PUBLIC LIABILITY COMPANY ,  PLC 
 HOLDINGS ,  HLDGS 
 HOLDING ,  HLDGS 
 GREAT BRITAIN ,  GB 
 LTD CO ,  CO LTD 
 SOC LIMITADA ,  SL 
 SOC EN COMMANDITA ,  SC 
 & CIA ,  CO 
 SOC IN ACCOMANDITA PER AZIONI ,  SA 
 SAPA ,  SA 
 SOC A RESPONSABILITA LIMITATA ,  SRL 
 HANDELSBOLAG ,  HB  
 KOMANDIT GESELLSCHAFT ,  KG 
 KOMANDITGESELLSCHAFT ,  KG 
 EINGETRAGENE GENOSSENSCHAFT ,  EG 
 GENOSSENSCHAFT ,  EG 
 GESELLSCHAFT M B H ,  GMBH 
 OFFENE HANDELS GESELLSCHAFT ,  OHG 
 GESMBH ,  GMBH 
 GESELLSCHAFT BURGERLICHEN RECHTS ,  GBR 
 GESELLSCHAFT ,  GMBH 
 GMBH CO KG ,  GMBH & CO KG 
 GMBH COKG ,  GMBH & CO KG 
 GMBH U CO KG ,  GMBH & CO KG 
 GMBH U COKG ,  GMBH & CO KG 
 GMBH U CO ,  GMBH & CO KG 
 GMBH CO ,  GMBH & CO KG 
 AG CO KG ,  AG & CO KG 
 AG COKG ,  AG & CO KG 
 AG U CO KG ,  AG & CO KG 
 AG U COKG ,  AG & CO KG 
 AG U CO ,  AG & CO KG 
 AG CO ,  AG & CO KG 
 GMBH CO OHG ,  GMBH &CO OHG 
 GMBH COOHG ,  GMBH & CO OHG 
 GMBH U CO OHG ,  GMBH & CO OHG 
 GMBH U COOHG ,  GMBH & CO OHG 
 AG CO OHG ,  AG & CO OHG 
 AG COOHG ,  AG & CO OHG 
 AG U CO OHG ,  AG & CO OHG 
 AG U COOHG ,  AG & CO OHG 
 SOCIETE ANONYME SIMPLIFIEE ,  SAS 
 SOC ANONYME ,  SA 
 STE ANONYME ,  SA 
 SARL UNIPERSONNELLE ,  SARLU 
 SOC PAR ACTIONS SIMPLIFIEES ,  SAS 
 SAS UNIPERSONNELLE ,  SASU 
 ENTREPRISE UNIPERSONNELLE A RESPONSABILITE LIMITEE ,  EURL 
 SOCIETE CIVILE IMMOBILIERE ,  SCI 
 GROUPEMENT D INTERET ECONOMIQUE ,  GIE 
 SOCIETE EN PARTICIPATION ,  SP 
 SOCIETE EN COMMANDITE SIMPLE ,  SCS 
 ANONYME DITE ,  SA 
 SOC DITE ,  SA 
 & CIE ,  CO 
 BV BEPERKTE AANSPRAKELIJKHEID ,  BVBA 
 COMMANDITAIRE VENNOOTSCHAP OP AANDELEN ,  CVA 
 GEWONE COMMANDITAIRE VENNOOTSCHAP ,  GCV 
 SOCIETE EN COMMANDITE PAR ACTIONS ,  SCA 
 GCV ,  SCS 
 NV ,  SA 
 BVBA ,  SPRL 
 ANDELSSELSKABET ,  AMBA 
 ANDELSSELSKAB ,  AMBA 
 INTERESSENTSKABET ,  IS 
 INTERESSENTSKAB ,  IS 
 KOMMANDITAKTIESELSKABET ,  KAS 
 KOMMANDITAKTIESELSKAB ,  KAS 
 KOMMANDITSELSKABET ,  KS 
 KOMMANDITSELSKAB ,  KS 
 ANDELSLAGET ,  AL 
 ANDELSLAG ,  AL 
 ANSVARLIG SELSKAPET ,  ANS 
 ANSVARLIG SELSKAP ,  ANS 
 AKSJESELSKAPET ,  AS 
 AKSJESELSKAP ,  AS 
 ALLMENNAKSJESELSKAPET ,  ASA 
 ALLMENNAKSJESELSKAP ,  ASA 
 SELSKAP MED DELT ANSAR ,  DA 
 KOMMANDITTSELSKAPET ,  KS 
 KOMMANDITTSELSKAP ,  KS 
 COMMANDITAIRE VENNOOTSCHAP ,  CV 
 COMMANDITAIRE VENNOOTSCHAP OP ANDELEN ,  CVOA 
 VENNOOTSCHAP ONDER FIRMA ,  VOF 
 PUBLIKT AKTIEBOLAG ,  APB 
 KOMMANDIITTIYHTIO ,  KY 
 JULKINEN OSAKEYHTIO ,  OYJ 
 SPOLKA AKCYJNA ,  SA 
 SPOLKA PRAWA CYWILNEGO ,  SC 
 SPOLKA KOMANDYTOWA ,  SK 
 SPOLKA Z OGRANICZONA ODPOWIEDZIALNOSCIA ,  SPZOO 
 SP Z OO ,  SPZOO 
 SPZ OO ,  SPZOO 
 SP ZOO ,  SPZOO 
 ANONYMOS ETAIRIA ,  AE 
 ETERRORRYTHMOS ,  EE 
 ETAIRIA PERIORISMENIS EVTHINIS ,  EPE 
 OMORRYTHMOS ,  OE 
 AKCIOVA SPOLECNOST ,  AS 
 KOMANDITNI SPOLECNOST ,  KS 
 SPOLECNOST S RUCENIM OMEZENYM ,  SRO 
 VEREJNA OBCHODNI SPOLECNOST ,  VOS 
 AKTIONIERNO DRUSHESTWO ,  AD 
 KOMANDITNO DRUSHESTWO ,  KD 
 KOMANDITNO DRUSHESTWO S AKZII ,  KDA 
 DRUSHESTWO S ORGRANITSCHENA OTGOWORNOST ,  OCD 
COMMUNICATION,COMM
Stock,
SYSTEM,SYS
SYSTEMS,SYS
SYSTEME,SYS
 KK ,CORP
 SERVICES , SERV 
 KABUSHIKI KAISHA , CORP 
 JIDOSHOKKI , JIDOSHA 
 SCIENT, SCI 
 KONICA , KONINK 
 Koninkl, konink 
 patent ,
 intellectual property l,
 intellectual property II,
 intellectual property llc,
 intellectual property ,  
 patents,
 service , SERV 
 SERVICES , SERV 
 intellectual prop ,
 intellectual properties ,
 displays ,disp
 display ,disp
enterprises,enterprise
 micro electronics , microelectronics
 coltd , co ltd 
mechanics,mech
mechanical,mech
